﻿col,x,y,z
0,#N/A,0,0
1,#N/A,10,0
2,#N/A,20,0
3,#N/A,30,0
4,#N/A,40,0
5,#N/A,50,0
6,#N/A,60,0
7,#N/A,70,0
8,#N/A,80,0
9,#N/A,90,0
10,#N/A,100,0
11,#N/A,110,0
12,#N/A,120,0
13,#N/A,130,0
14,#N/A,140,0
15,#N/A,150,0
16,#N/A,160,0
17,#N/A,170,0
18,#N/A,180,0
19,#N/A,190,0
20,#N/A,200,0
21,#N/A,210,0
22,#N/A,220,0
23,#N/A,230,0
24,#N/A,240,0
25,#N/A,250,0
26,#N/A,260,0
27,#N/A,270,0
28,#N/A,280,0
29,#N/A,290,0
30,#N/A,300,0
31,#N/A,310,0
32,#N/A,320,0
33,#N/A,330,0
34,#N/A,340,0
35,#N/A,350,0
36,#N/A,360,0
37,#N/A,370,0
38,#N/A,380,0
39,#N/A,390,0
40,#N/A,400,0
41,#N/A,410,0
42,#N/A,420,0
43,#N/A,430,0
44,#N/A,440,0
45,#N/A,450,0
46,#N/A,460,0
47,#N/A,470,0
48,#N/A,480,0
49,#N/A,490,0
50,#N/A,500,0
51,#N/A,510,0
52,#N/A,520,0
53,#N/A,530,0
54,#N/A,540,0
55,#N/A,550,0
56,#N/A,560,0
57,#N/A,570,0
58,#N/A,580,0
59,#N/A,590,0
60,#N/A,600,0
61,#N/A,610,0
62,#N/A,620,0
63,#N/A,630,0
64,#N/A,640,0
65,#N/A,650,0
66,#N/A,660,0
67,#N/A,670,0
68,#N/A,680,0
69,#N/A,690,0
70,#N/A,700,0
71,#N/A,710,0
72,#N/A,720,0
73,#N/A,730,0
74,#N/A,740,0
75,#N/A,750,0
76,#N/A,760,0
77,#N/A,770,0
78,#N/A,780,0
79,#N/A,790,0
80,#N/A,800,0
81,#N/A,810,0
82,#N/A,820,0
83,#N/A,830,0
84,#N/A,840,0
85,#N/A,850,0
86,#N/A,860,0
87,#N/A,870,0
88,#N/A,880,0
89,#N/A,890,0
90,#N/A,900,0
91,#N/A,910,0
92,#N/A,920,0
93,#N/A,930,0
94,#N/A,940,0
95,#N/A,950,0
96,#N/A,960,0
97,#N/A,970,0
98,#N/A,980,0
99,#N/A,990,0
100,#N/A,1000,0
101,#N/A,1010,0
102,#N/A,1020,0
103,#N/A,1030,0
104,#N/A,1040,0
105,#N/A,1050,0
106,#N/A,1060,0
107,#N/A,1070,0
108,#N/A,1080,0
109,#N/A,1090,0
110,#N/A,1100,0
111,#N/A,1110,0
112,#N/A,1120,0
113,#N/A,1130,0
114,#N/A,1140,0
115,#N/A,1150,0
116,#N/A,1160,0
117,#N/A,1170,0
118,#N/A,1180,0
119,#N/A,1190,0
120,#N/A,1200,0
121,#N/A,1210,0
122,#N/A,1220,0
123,#N/A,1230,0
124,#N/A,1240,0
125,#N/A,1250,0
126,#N/A,1260,0
127,#N/A,1270,0
128,#N/A,1280,0
129,#N/A,1290,0
130,#N/A,1300,0
131,#N/A,1310,0
132,#N/A,1320,0
133,#N/A,1330,0
134,#N/A,1340,0
135,#N/A,1350,0
136,#N/A,1360,0
137,#N/A,1370,0
138,#N/A,1380,0
139,#N/A,1390,0
140,#N/A,1400,0
141,#N/A,1410,0
142,#N/A,1420,0
143,#N/A,1430,0
144,#N/A,1440,0
145,#N/A,1450,0
146,#N/A,1460,0
147,#N/A,1470,0
148,#N/A,1480,0
149,#N/A,1490,0
150,#N/A,1500,0
151,#N/A,1510,0
152,#N/A,1520,0
153,#N/A,1530,0
154,#N/A,1540,0
155,#N/A,1550,0
156,#N/A,1560,0
157,#N/A,1570,0
158,#N/A,1580,0
159,#N/A,1590,0
160,#N/A,1600,0
161,#N/A,1610,0
162,#N/A,1620,0
163,#N/A,1630,0
164,#N/A,1640,0
165,#N/A,1650,0
166,#N/A,1660,0
167,#N/A,1670,0
168,#N/A,1680,0
169,#N/A,1690,0
170,#N/A,1700,0
171,#N/A,1710,0
172,#N/A,1720,0
173,#N/A,1730,0
174,#N/A,1740,0
175,#N/A,1750,0
176,#N/A,1760,0
177,#N/A,1770,0
178,#N/A,1780,0
179,#N/A,1790,0
180,#N/A,1800,0
181,#N/A,1810,0
182,#N/A,1820,0
183,#N/A,1830,0
184,#N/A,1840,0
185,#N/A,1850,0
186,#N/A,1860,0
187,#N/A,1870,0
188,#N/A,1880,0
189,#N/A,1890,0
190,#N/A,1900,0
191,#N/A,1910,0
